{
    "$schema": "http://json-schema.org/draft-07/schema",

    "definitions": {
        "evaluation": {
            "type": "object",
            "properties": {
                "date": { "type": "string" },
                "grade": { "type": "string" },
                "score": { "type": "number" }
            },
            "required": [
                "date", "grade", "score"
            ]
        }
    },


    "type": "object",
    "properties": {
        "address": {
            "type": "object",
            "properties": {
                "building": { "type": "string" },
                "coord": {
                    "type": "array",
                    "minItems": 2,
                    "maxItems": 2
                },
                "street": { "type": "string" },
                "zipcode": {
                    "type": "string",
                    "minLength": 6,
                    "maxLength": 6
                }
            },
            "required": [
                "building", "coord", "street", "zipcode"
            ]
        },
        "borough": { "type": "string" },
        "cuisine": { "type": "string" },
        "grades": {
            "type": "array",
            "items": { "$ref": "#/definitions/evaulation" }
        },
        "name": { "type": "string"},
        "restaurant_id": {"type": "string"}
    },
    "required": [
        "address", "borough", "cuisine", "grades", "name", "restaurant_id"
    ]

  }